21

15 16
13
12 0
3 3
4 8
0 11
7 2
8 8
7 3
0 1
1 9
9 9
1 10
3 15
14 15
226 11

35 39
11
20 36
6 3
26 15
1 29
18 6
7 31
12 30
23 18
9 1
14 20
21 3
25 3

31 38
5
23 7
7 4
19 4
15 24
11 2
103 94

28 6
11
17 4
22 3
26 4
8 1
17 1
12 4
4 5
17 4
26 5
16 5
4 4
465 156

17 17
35
8 13
4 9
8 1
12 14
12 9
13 12
5 5
12 2
11 11
9 5
5 8
13 12
1 9
10 11
5 6
3 4
5 1
7 14
9 0
3 4
16 0
13 7
8 7
16 5
10 15
4 0
13 5
1 15
7 13
11 13
16 11
0 16
14 16
8 12
5 15
356 65

19 6
24
7 5
15 4
10 2
5 0
4 3
8 2
14 4
4 2
14 4
18 5
0 3
12 0
16 0
15 4
9 1
18 0
13 4
12 0
12 0
1 2
4 0
4 4
11 3
1 0
293 168

40 31
26
18 15
17 13
20 25
7 0
13 2
29 19
24 28
26 7
37 10
39 10
31 0
33 27
32 21
5 4
26 8
36 23
29 2
34 21
3 2
37 3
31 21
8 19
38 13
15 19
11 20
38 8
220 138

23 20
26
2 15
19 12
20 15
5 8
11 19
13 15
3 6
20 10
15 15
14 13
12 19
0 18
20 7
4 15
6 11
2 17
7 1
3 4
20 14
18 16
2 4
19 2
9 11
17 17
22 4
21 14
433 56

7 33
31
6 31
0 19
0 16
2 26
4 7
4 18
1 15
1 31
6 11
3 10
4 15
5 0
5 4
4 21
6 27
2 7
3 11
1 2
3 15
5 20
1 18
6 26
3 26
6 18
3 32
2 29
1 14
5 9
5 5
0 26
0 10
419 28

2 27
30
1 5
0 3
1 2
0 23
0 25
0 24
0 19
0 19
1 10
1 4
1 19
1 4
0 20
1 20
1 8
0 10
0 26
1 24
0 21
1 7
1 13
0 14
1 18
1 20
1 16
1 23
1 18
0 9
0 19
1 10
399 54

28 27
16
23 6
21 12
2 0
6 20
3 4
14 4
27 13
5 7
11 23
12 23
5 20
9 5
2 25
23 7
3 24
1 7
277 133

36 38
10
15 30
19 9
17 3
8 26
21 34
33 30
7 31
32 35
17 14
11 22
111 57

14 14
5
9 1
1 9
6 7
4 6
13 1
180 171

31 13
22
22 7
13 1
11 0
12 0
29 7
12 12
29 4
1 8
1 4
16 11
0 3
7 5
16 2
15 1
22 4
7 4
4 8
0 12
23 10
26 10
8 6
18 2
225 196

18 24
34
14 12
14 11
12 1
10 13
16 3
14 7
11 3
4 8
4 9
6 1
8 7
2 3
14 11
1 20
2 11
11 11
5 15
17 21
9 12
2 14
7 22
8 11
2 23
11 4
7 4
9 10
0 21
15 3
4 20
14 15
0 6
1 1
3 17
7 8
218 126

35 20
17
7 3
8 2
0 5
30 18
9 3
16 2
27 3
5 2
28 16
6 18
8 2
19 17
11 12
19 4
32 9
32 4
3 18
13 118

4 25
17
0 12
3 14
3 20
3 17
0 12
2 20
1 6
0 22
0 8
0 1
2 22
2 3
2 15
0 10
0 7
3 14
1 0
353 19

5 9
28
0 2
0 8
0 8
0 3
2 7
4 2
2 4
0 3
1 5
0 2
1 1
4 1
1 3
1 8
1 6
2 0
2 2
4 6
4 5
2 8
0 4
4 3
0 0
3 3
3 7
0 2
2 1
3 0
367 80

26 35
4
3 26
20 18
18 10
12 18
468 122

30 35
40
5 13
3 4
15 3
12 19
22 23
5 2
6 3
19 12
27 9
16 0
17 2
25 22
4 28
7 18
6 30
14 27
25 29
6 34
9 4
15 18
13 5
15 33
7 13
6 22
24 26
14 21
5 15
3 16
9 3
16 4
0 2
9 16
18 31
11 25
21 5
17 7
26 13
26 16
1 22
11 29
248 21

16 8
28
2 5
15 1
9 7
4 7
11 2
0 1
5 4
3 7
6 7
5 6
0 2
4 7
15 0
3 4
7 1
4 4
1 0
15 4
8 1
4 7
10 2
9 1
6 5
3 5
12 2
13 1
0 6
12 2
233 173
